<svg width="8" height="13" viewBox="0 0 8 13" fill="none" xmlns="http://www.w3.org/2000/svg">
<path fill-rule="evenodd" clip-rule="evenodd" d="M6.50764 12.5076L7.81261 11.1056L3.52463 6.49631L7.81261 1.88987L6.50764 0.486695L0.91457 6.49631L6.50764 12.5076Z" fill="#ffffff"/>
</svg>
